<?xml version="1.0" encoding="utf-8"?>
<!-- Generator: Adobe Illustrator 18.1.1, SVG Export Plug-In . SVG Version: 6.00 Build 0)  -->
<!DOCTYPE svg PUBLIC "-//W3C//DTD SVG 1.1//EN" "http://www.w3.org/Graphics/SVG/1.1/DTD/svg11.dtd">
<svg version="1.1" id="Layer_1" xmlns="http://www.w3.org/2000/svg" xmlns:xlink="http://www.w3.org/1999/xlink" x="0px" y="0px"
	 viewBox="-747.7 261 1467.4 1420" enable-background="new -747.7 261 1467.4 1420" xml:space="preserve">
<path fill="#E5E5E5" d="M630.7,1109H-658.7c-49,0-89-40.1-89-89v-98c0-49,40-89,89-89H630.7c49,0,89,40,89,89v98
	C719.7,1068.9,679.7,1109,630.7,1109z"/>
<path fill="#E5E5E5" d="M630.7,537H-658.7c-49,0-89-40-89-89v-98c0-49,40-89,89-89H630.7c49,0,89,40,89,89v98
	C719.7,497,679.7,537,630.7,537z"/>
<path fill="#E5E5E5" d="M630.7,1681H-658.7c-49,0-89-40.1-89-89v-98c0-48.9,40-89,89-89H630.7c49,0,89,40.1,89,89v98
	C719.7,1640.9,679.7,1681,630.7,1681z"/>
</svg>
